\relax 
\providecommand\hyper@newdestlabel[2]{}
\@writefile{toc}{\contentsline {chapter}{\numberline {4}Arhitektura i dizajn sustava}{25}{chapter.4}\protected@file@percent }
\@writefile{lof}{\addvspace {10\p@ }}
\@writefile{lot}{\addvspace {10\p@ }}
\@writefile{lof}{\contentsline {figure}{\numberline {4.1}{\ignorespaces Arhitektura sustava}}{25}{figure.4.1}\protected@file@percent }
\newlabel{fig:promjene4}{{4.1}{25}{Arhitektura sustava}{figure.4.1}{}}
\@writefile{toc}{\contentsline {section}{\numberline {4.1}Baza podataka}{26}{section.4.1}\protected@file@percent }
\@writefile{toc}{\contentsline {subsection}{\numberline {4.1.1}Opis tablica}{26}{subsection.4.1.1}\protected@file@percent }
\gdef \LT@ii {\LT@entry 
    {4}{87.427pt}\LT@entry 
    {4}{87.02701pt}\LT@entry 
    {4}{261.15671pt}}
\gdef \LT@iii {\LT@entry 
    {4}{87.427pt}\LT@entry 
    {4}{87.02701pt}\LT@entry 
    {4}{261.15671pt}}
\gdef \LT@iv {\LT@entry 
    {4}{87.427pt}\LT@entry 
    {4}{87.02701pt}\LT@entry 
    {4}{261.15671pt}}
\gdef \LT@v {\LT@entry 
    {4}{87.427pt}\LT@entry 
    {4}{87.02701pt}\LT@entry 
    {4}{261.15671pt}}
\gdef \LT@vi {\LT@entry 
    {4}{87.427pt}\LT@entry 
    {4}{87.02701pt}\LT@entry 
    {4}{261.15671pt}}
\gdef \LT@vii {\LT@entry 
    {4}{87.427pt}\LT@entry 
    {4}{87.02701pt}\LT@entry 
    {4}{261.15671pt}}
\gdef \LT@viii {\LT@entry 
    {4}{87.427pt}\LT@entry 
    {4}{87.02701pt}\LT@entry 
    {4}{261.15671pt}}
\gdef \LT@ix {\LT@entry 
    {4}{87.427pt}\LT@entry 
    {4}{87.02701pt}\LT@entry 
    {4}{261.15671pt}}
\gdef \LT@x {\LT@entry 
    {4}{87.427pt}\LT@entry 
    {4}{87.02701pt}\LT@entry 
    {4}{261.15671pt}}
\gdef \LT@xi {\LT@entry 
    {4}{87.427pt}\LT@entry 
    {4}{87.02701pt}\LT@entry 
    {4}{261.15671pt}}
\@writefile{toc}{\contentsline {subsection}{\numberline {4.1.2}Dijagram baze podataka}{30}{subsection.4.1.2}\protected@file@percent }
\@writefile{lof}{\contentsline {figure}{\numberline {4.2}{\ignorespaces ER dijagram baze podataka}}{30}{figure.4.2}\protected@file@percent }
\newlabel{fig:promjene8}{{4.2}{30}{ER dijagram baze podataka}{figure.4.2}{}}
\@writefile{toc}{\contentsline {section}{\numberline {4.2}Dijagram razreda}{31}{section.4.2}\protected@file@percent }
\@writefile{lof}{\contentsline {figure}{\numberline {4.3}{\ignorespaces Dijagram razreda - odnos između glavnih entiteta aplikacije}}{32}{figure.4.3}\protected@file@percent }
\newlabel{fig:promjene9}{{4.3}{32}{Dijagram razreda - odnos između glavnih entiteta aplikacije}{figure.4.3}{}}
\@writefile{lof}{\contentsline {figure}{\numberline {4.4}{\ignorespaces Dijagram razreda - Controlleri i Servisi}}{33}{figure.4.4}\protected@file@percent }
\newlabel{fig:promjene10}{{4.4}{33}{Dijagram razreda - Controlleri i Servisi}{figure.4.4}{}}
\@writefile{lof}{\contentsline {figure}{\numberline {4.5}{\ignorespaces Dijagram razreda - auto dio je povezan sa određenim servisom preko klase ServicePart}}{34}{figure.4.5}\protected@file@percent }
\newlabel{fig:promjene13}{{4.5}{34}{Dijagram razreda - auto dio je povezan sa određenim servisom preko klase ServicePart}{figure.4.5}{}}
\@writefile{lof}{\contentsline {figure}{\numberline {4.6}{\ignorespaces Dijagram razreda - Neregistrirani korisnik}}{35}{figure.4.6}\protected@file@percent }
\newlabel{fig:promjene15}{{4.6}{35}{Dijagram razreda - Neregistrirani korisnik}{figure.4.6}{}}
\@writefile{lof}{\contentsline {figure}{\numberline {4.7}{\ignorespaces Dijagram razreda - Povezanost radnog naloga, vozila, autoservisa, autodijelova te preporuke}}{36}{figure.4.7}\protected@file@percent }
\newlabel{fig:promjene16}{{4.7}{36}{Dijagram razreda - Povezanost radnog naloga, vozila, autoservisa, autodijelova te preporuke}{figure.4.7}{}}
\@writefile{toc}{\contentsline {section}{\numberline {4.3}Dijagram stanja}{37}{section.4.3}\protected@file@percent }
\@writefile{lof}{\contentsline {figure}{\numberline {4.8}{\ignorespaces Dijagram stanja}}{38}{figure.4.8}\protected@file@percent }
\newlabel{fig:promjene11}{{4.8}{38}{Dijagram stanja}{figure.4.8}{}}
\@writefile{toc}{\contentsline {section}{\numberline {4.4}Dijagram aktivnosti}{39}{section.4.4}\protected@file@percent }
\@writefile{lof}{\contentsline {figure}{\numberline {4.9}{\ignorespaces Dijagram aktivnosti}}{39}{figure.4.9}\protected@file@percent }
\newlabel{fig:promjene12}{{4.9}{39}{Dijagram aktivnosti}{figure.4.9}{}}
\@writefile{toc}{\contentsline {section}{\numberline {4.5}Dijagram komponenti}{40}{section.4.5}\protected@file@percent }
\@writefile{lof}{\contentsline {figure}{\numberline {4.10}{\ignorespaces Dijagram komponenti}}{40}{figure.4.10}\protected@file@percent }
\newlabel{fig:promjene17}{{4.10}{40}{Dijagram komponenti}{figure.4.10}{}}
\@setckpt{Arhitektura}{
\setcounter{page}{41}
\setcounter{equation}{0}
\setcounter{enumi}{1}
\setcounter{enumii}{1}
\setcounter{enumiii}{3}
\setcounter{enumiv}{0}
\setcounter{footnote}{0}
\setcounter{mpfootnote}{0}
\setcounter{part}{0}
\setcounter{chapter}{4}
\setcounter{section}{5}
\setcounter{subsection}{0}
\setcounter{subsubsection}{0}
\setcounter{paragraph}{0}
\setcounter{subparagraph}{0}
\setcounter{figure}{10}
\setcounter{table}{10}
\setcounter{parentequation}{0}
\setcounter{LT@tables}{11}
\setcounter{LT@chunks}{4}
\setcounter{Item}{92}
\setcounter{Hfootnote}{0}
\setcounter{bookmark@seq@number}{15}
\setcounter{float@type}{4}
\setcounter{section@level}{0}
}
