\relax 
\providecommand\hyper@newdestlabel[2]{}
\@writefile{toc}{\contentsline {chapter}{\numberline {5}Implementacija i korisničko sučelje}{41}{chapter.5}\protected@file@percent }
\@writefile{lof}{\addvspace {10\p@ }}
\@writefile{lot}{\addvspace {10\p@ }}
\@writefile{toc}{\contentsline {section}{\numberline {5.1}Korištene tehnologije i alati}{41}{section.5.1}\protected@file@percent }
\@writefile{toc}{\contentsline {section}{\numberline {5.2}Ispitivanje programskog rješenja}{42}{section.5.2}\protected@file@percent }
\@writefile{toc}{\contentsline {subsection}{\numberline {5.2.1}Ispitivanje komponenti}{42}{subsection.5.2.1}\protected@file@percent }
\@writefile{lof}{\contentsline {figure}{\numberline {5.1}{\ignorespaces Inicijalizacija servisa}}{42}{figure.5.1}\protected@file@percent }
\newlabel{fig:promjene19}{{5.1}{42}{Inicijalizacija servisa}{figure.5.1}{}}
\@writefile{lof}{\contentsline {figure}{\numberline {5.2}{\ignorespaces Podaci}}{42}{figure.5.2}\protected@file@percent }
\newlabel{fig:promjene20}{{5.2}{42}{Podaci}{figure.5.2}{}}
\@writefile{lof}{\contentsline {figure}{\numberline {5.3}{\ignorespaces JUnit test 1}}{43}{figure.5.3}\protected@file@percent }
\newlabel{fig:promjene18}{{5.3}{43}{JUnit test 1}{figure.5.3}{}}
\@writefile{lof}{\contentsline {figure}{\numberline {5.4}{\ignorespaces JUnit test 2}}{43}{figure.5.4}\protected@file@percent }
\newlabel{fig:promjene23}{{5.4}{43}{JUnit test 2}{figure.5.4}{}}
\@writefile{lof}{\contentsline {figure}{\numberline {5.5}{\ignorespaces JUnit test 3}}{44}{figure.5.5}\protected@file@percent }
\newlabel{fig:promjene25}{{5.5}{44}{JUnit test 3}{figure.5.5}{}}
\@writefile{lof}{\contentsline {figure}{\numberline {5.6}{\ignorespaces JUnit test 4}}{44}{figure.5.6}\protected@file@percent }
\newlabel{fig:promjene21}{{5.6}{44}{JUnit test 4}{figure.5.6}{}}
\@writefile{lof}{\contentsline {figure}{\numberline {5.7}{\ignorespaces JUnit test 5}}{45}{figure.5.7}\protected@file@percent }
\newlabel{fig:promjene22}{{5.7}{45}{JUnit test 5}{figure.5.7}{}}
\@writefile{lof}{\contentsline {figure}{\numberline {5.8}{\ignorespaces JUnit test 6}}{45}{figure.5.8}\protected@file@percent }
\newlabel{fig:promjene24}{{5.8}{45}{JUnit test 6}{figure.5.8}{}}
\@writefile{lof}{\contentsline {figure}{\numberline {5.9}{\ignorespaces JUnit test rezultati}}{46}{figure.5.9}\protected@file@percent }
\newlabel{fig:promjene26}{{5.9}{46}{JUnit test rezultati}{figure.5.9}{}}
\@writefile{toc}{\contentsline {subsection}{\numberline {5.2.2}Ispitivanje sustava}{46}{subsection.5.2.2}\protected@file@percent }
\@writefile{lof}{\contentsline {figure}{\numberline {5.10}{\ignorespaces Selenium - snimljeni koraci registracije vlasnika vozila}}{46}{figure.5.10}\protected@file@percent }
\newlabel{fig:promjene27}{{5.10}{46}{Selenium - snimljeni koraci registracije vlasnika vozila}{figure.5.10}{}}
\@writefile{lof}{\contentsline {figure}{\numberline {5.11}{\ignorespaces Početna stranica}}{47}{figure.5.11}\protected@file@percent }
\newlabel{fig:promjene28}{{5.11}{47}{Početna stranica}{figure.5.11}{}}
\@writefile{lof}{\contentsline {figure}{\numberline {5.12}{\ignorespaces Sučelje vlasnika vozila}}{47}{figure.5.12}\protected@file@percent }
\newlabel{fig:promjene29}{{5.12}{47}{Sučelje vlasnika vozila}{figure.5.12}{}}
\@writefile{lof}{\contentsline {figure}{\numberline {5.13}{\ignorespaces Selenium - koraci dodavanja vozila}}{48}{figure.5.13}\protected@file@percent }
\newlabel{fig:promjene30}{{5.13}{48}{Selenium - koraci dodavanja vozila}{figure.5.13}{}}
\@writefile{lof}{\contentsline {figure}{\numberline {5.14}{\ignorespaces Upisivanje podataka za registraciju vozila}}{48}{figure.5.14}\protected@file@percent }
\newlabel{fig:promjene31}{{5.14}{48}{Upisivanje podataka za registraciju vozila}{figure.5.14}{}}
\@writefile{lof}{\contentsline {figure}{\numberline {5.15}{\ignorespaces Izlged sučelja vlasnika vozila nakon dodavanja vozila}}{49}{figure.5.15}\protected@file@percent }
\newlabel{fig:promjene32}{{5.15}{49}{Izlged sučelja vlasnika vozila nakon dodavanja vozila}{figure.5.15}{}}
\@writefile{lof}{\contentsline {figure}{\numberline {5.16}{\ignorespaces Selenium - koraci registriracije vlasnika auto servisa}}{49}{figure.5.16}\protected@file@percent }
\newlabel{fig:promjene33}{{5.16}{49}{Selenium - koraci registriracije vlasnika auto servisa}{figure.5.16}{}}
\@writefile{lof}{\contentsline {figure}{\numberline {5.17}{\ignorespaces Upisivanje podataka za registraciju autoservisa}}{50}{figure.5.17}\protected@file@percent }
\newlabel{fig:promjene34}{{5.17}{50}{Upisivanje podataka za registraciju autoservisa}{figure.5.17}{}}
\@writefile{lof}{\contentsline {figure}{\numberline {5.18}{\ignorespaces Upisivanje podataka za registraciju servisera}}{50}{figure.5.18}\protected@file@percent }
\newlabel{fig:promjene35}{{5.18}{50}{Upisivanje podataka za registraciju servisera}{figure.5.18}{}}
\@writefile{lof}{\contentsline {figure}{\numberline {5.19}{\ignorespaces Izlged sučelja vlasnika autoservisa}}{51}{figure.5.19}\protected@file@percent }
\newlabel{fig:promjene36}{{5.19}{51}{Izlged sučelja vlasnika autoservisa}{figure.5.19}{}}
\@writefile{toc}{\contentsline {section}{\numberline {5.3}Dijagram razmještaja}{52}{section.5.3}\protected@file@percent }
\@writefile{lof}{\contentsline {figure}{\numberline {5.20}{\ignorespaces Dijagram razmještaja}}{52}{figure.5.20}\protected@file@percent }
\newlabel{fig:promjene14}{{5.20}{52}{Dijagram razmještaja}{figure.5.20}{}}
\@writefile{toc}{\contentsline {section}{\numberline {5.4}Upute za puštanje u pogon}{53}{section.5.4}\protected@file@percent }
\@writefile{lof}{\contentsline {figure}{\numberline {5.21}{\ignorespaces Pripremanje Spring Boot aplikacije za heroku - korak 1}}{53}{figure.5.21}\protected@file@percent }
\newlabel{fig:promjene40}{{5.21}{53}{Pripremanje Spring Boot aplikacije za heroku - korak 1}{figure.5.21}{}}
\@writefile{lof}{\contentsline {figure}{\numberline {5.22}{\ignorespaces Pripremanje Spring Boot aplikacije za heroku - korak 2}}{53}{figure.5.22}\protected@file@percent }
\newlabel{fig:promjene41}{{5.22}{53}{Pripremanje Spring Boot aplikacije za heroku - korak 2}{figure.5.22}{}}
\@writefile{lof}{\contentsline {figure}{\numberline {5.23}{\ignorespaces Pripremanje Spring Boot aplikacije za heroku - korak 3}}{54}{figure.5.23}\protected@file@percent }
\newlabel{fig:promjene42}{{5.23}{54}{Pripremanje Spring Boot aplikacije za heroku - korak 3}{figure.5.23}{}}
\@writefile{lof}{\contentsline {figure}{\numberline {5.24}{\ignorespaces Dodavanje datoteke server.js}}{55}{figure.5.24}\protected@file@percent }
\newlabel{fig:promjene43}{{5.24}{55}{Dodavanje datoteke server.js}{figure.5.24}{}}
\@writefile{lof}{\contentsline {figure}{\numberline {5.25}{\ignorespaces Nadopunjavanje package.JSON}}{55}{figure.5.25}\protected@file@percent }
\newlabel{fig:promjene44}{{5.25}{55}{Nadopunjavanje package.JSON}{figure.5.25}{}}
\@writefile{lof}{\contentsline {figure}{\numberline {5.26}{\ignorespaces Heroku poruka \textit  {Build succeeded}}}{56}{figure.5.26}\protected@file@percent }
\newlabel{fig:promjene45}{{5.26}{56}{Heroku poruka \textit {Build succeeded}}{figure.5.26}{}}
\@writefile{lof}{\contentsline {figure}{\numberline {5.27}{\ignorespaces Prikaz aplikacije nakon puštanja u pogon alatom \textit  {Heroku}}}{56}{figure.5.27}\protected@file@percent }
\newlabel{fig:promjene46}{{5.27}{56}{Prikaz aplikacije nakon puštanja u pogon alatom \textit {Heroku}}{figure.5.27}{}}
\@setckpt{Implementacija}{
\setcounter{page}{57}
\setcounter{equation}{0}
\setcounter{enumi}{2}
\setcounter{enumii}{1}
\setcounter{enumiii}{3}
\setcounter{enumiv}{0}
\setcounter{footnote}{15}
\setcounter{mpfootnote}{0}
\setcounter{part}{0}
\setcounter{chapter}{5}
\setcounter{section}{4}
\setcounter{subsection}{0}
\setcounter{subsubsection}{0}
\setcounter{paragraph}{0}
\setcounter{subparagraph}{0}
\setcounter{figure}{27}
\setcounter{table}{0}
\setcounter{parentequation}{0}
\setcounter{LT@tables}{11}
\setcounter{LT@chunks}{4}
\setcounter{Item}{94}
\setcounter{Hfootnote}{15}
\setcounter{bookmark@seq@number}{22}
\setcounter{float@type}{4}
\setcounter{section@level}{0}
}
