\relax 
\providecommand\hyper@newdestlabel[2]{}
\@writefile{toc}{\contentsline {chapter}{Popis literature}{58}{chapter*.4}\protected@file@percent }
\@setckpt{Literatura}{
\setcounter{page}{59}
\setcounter{equation}{0}
\setcounter{enumi}{7}
\setcounter{enumii}{1}
\setcounter{enumiii}{3}
\setcounter{enumiv}{0}
\setcounter{footnote}{0}
\setcounter{mpfootnote}{0}
\setcounter{part}{0}
\setcounter{chapter}{6}
\setcounter{section}{0}
\setcounter{subsection}{0}
\setcounter{subsubsection}{0}
\setcounter{paragraph}{0}
\setcounter{subparagraph}{0}
\setcounter{figure}{0}
\setcounter{table}{0}
\setcounter{parentequation}{0}
\setcounter{LT@tables}{11}
\setcounter{LT@chunks}{4}
\setcounter{Item}{101}
\setcounter{Hfootnote}{15}
\setcounter{bookmark@seq@number}{24}
\setcounter{float@type}{4}
\setcounter{section@level}{0}
}
