\relax 
\providecommand\hyper@newdestlabel[2]{}
\@writefile{toc}{\contentsline {chapter}{\numberline {3}Specifikacija programske potpore}{9}{chapter.3}\protected@file@percent }
\@writefile{lof}{\addvspace {10\p@ }}
\@writefile{lot}{\addvspace {10\p@ }}
\@writefile{toc}{\contentsline {section}{\numberline {3.1}Funkcionalni zahtjevi}{9}{section.3.1}\protected@file@percent }
\@writefile{toc}{\contentsline {subsection}{\numberline {3.1.1}Obrasci uporabe}{11}{subsection.3.1.1}\protected@file@percent }
\@writefile{toc}{\contentsline {subsubsection}{Opis obrazaca uporabe}{11}{subsubsection*.2}\protected@file@percent }
\@writefile{toc}{\contentsline {subsubsection}{Dijagrami obrazaca uporabe}{18}{subsubsection*.3}\protected@file@percent }
\@writefile{lof}{\contentsline {figure}{\numberline {3.1}{\ignorespaces Dijagram obrasca uporabe, prikazani cijeli sustav aplikacije MojAutoservis}}{18}{figure.3.1}\protected@file@percent }
\newlabel{fig:promjene3}{{3.1}{18}{Dijagram obrasca uporabe, prikazani cijeli sustav aplikacije MojAutoservis}{figure.3.1}{}}
\@writefile{lof}{\contentsline {figure}{\numberline {3.2}{\ignorespaces Dijagram obrasca uporabe, prikazan proces otvaranja radnog naloga}}{19}{figure.3.2}\protected@file@percent }
\newlabel{fig:promjene64}{{3.2}{19}{Dijagram obrasca uporabe, prikazan proces otvaranja radnog naloga}{figure.3.2}{}}
\@writefile{toc}{\contentsline {subsection}{\numberline {3.1.2}Sekvencijski dijagrami}{20}{subsection.3.1.2}\protected@file@percent }
\@writefile{lof}{\contentsline {figure}{\numberline {3.3}{\ignorespaces Sekvencijski dijagram za UC5}}{21}{figure.3.3}\protected@file@percent }
\newlabel{fig:promjene5}{{3.3}{21}{Sekvencijski dijagram za UC5}{figure.3.3}{}}
\@writefile{lof}{\contentsline {figure}{\numberline {3.4}{\ignorespaces Sekvencijski dijagram za UC11}}{23}{figure.3.4}\protected@file@percent }
\newlabel{fig:promjene6}{{3.4}{23}{Sekvencijski dijagram za UC11}{figure.3.4}{}}
\@writefile{toc}{\contentsline {section}{\numberline {3.2}Ostali zahtjevi}{24}{section.3.2}\protected@file@percent }
\@setckpt{Specifikacija_programske_potpore}{
\setcounter{page}{25}
\setcounter{equation}{0}
\setcounter{enumi}{1}
\setcounter{enumii}{1}
\setcounter{enumiii}{3}
\setcounter{enumiv}{0}
\setcounter{footnote}{0}
\setcounter{mpfootnote}{0}
\setcounter{part}{0}
\setcounter{chapter}{3}
\setcounter{section}{2}
\setcounter{subsection}{0}
\setcounter{subsubsection}{0}
\setcounter{paragraph}{0}
\setcounter{subparagraph}{0}
\setcounter{figure}{4}
\setcounter{table}{0}
\setcounter{parentequation}{0}
\setcounter{LT@tables}{1}
\setcounter{LT@chunks}{4}
\setcounter{Item}{92}
\setcounter{Hfootnote}{0}
\setcounter{bookmark@seq@number}{7}
\setcounter{float@type}{4}
\setcounter{section@level}{0}
}
